Documents/coe328/github coe328/simulation/qsim/Lab6CPU.msim.vcd
$comment
	File created using the following command:
		vcd file Lab6CPU.msim.vcd -direction
$end
$date
	Wed Nov 27 00:46:33 2024
$end
$version
	ModelSim Version 10.1d
$end
$timescale
	1ps
$end
$scope module CPUp2_vlg_vec_tst $end
$var reg 8 ! A [7:0] $end
$var reg 8 " B [7:0] $end
$var reg 1 # clk $end
$var reg 1 $ data_in $end
$var reg 1 % reset $end
$var wire 1 & current_state [3] $end
$var wire 1 ' current_state [2] $end
$var wire 1 ( current_state [1] $end
$var wire 1 ) current_state [0] $end
$var wire 1 * neg [0] $end
$var wire 1 + neg [1] $end
$var wire 1 , neg [2] $end
$var wire 1 - neg [3] $end
$var wire 1 . neg [4] $end
$var wire 1 / neg [5] $end
$var wire 1 0 neg [6] $end
$var wire 1 1 opcode [15] $end
$var wire 1 2 opcode [14] $end
$var wire 1 3 opcode [13] $end
$var wire 1 4 opcode [12] $end
$var wire 1 5 opcode [11] $end
$var wire 1 6 opcode [10] $end
$var wire 1 7 opcode [9] $end
$var wire 1 8 opcode [8] $end
$var wire 1 9 opcode [7] $end
$var wire 1 : opcode [6] $end
$var wire 1 ; opcode [5] $end
$var wire 1 < opcode [4] $end
$var wire 1 = opcode [3] $end
$var wire 1 > opcode [2] $end
$var wire 1 ? opcode [1] $end
$var wire 1 @ opcode [0] $end
$var wire 1 A R1_num [3] $end
$var wire 1 B R1_num [2] $end
$var wire 1 C R1_num [1] $end
$var wire 1 D R1_num [0] $end
$var wire 1 E R1_out [0] $end
$var wire 1 F R1_out [1] $end
$var wire 1 G R1_out [2] $end
$var wire 1 H R1_out [3] $end
$var wire 1 I R1_out [4] $end
$var wire 1 J R1_out [5] $end
$var wire 1 K R1_out [6] $end
$var wire 1 L R2_num [3] $end
$var wire 1 M R2_num [2] $end
$var wire 1 N R2_num [1] $end
$var wire 1 O R2_num [0] $end
$var wire 1 P R2_out [0] $end
$var wire 1 Q R2_out [1] $end
$var wire 1 R R2_out [2] $end
$var wire 1 S R2_out [3] $end
$var wire 1 T R2_out [4] $end
$var wire 1 U R2_out [5] $end
$var wire 1 V R2_out [6] $end
$var wire 1 W Reg1 [7] $end
$var wire 1 X Reg1 [6] $end
$var wire 1 Y Reg1 [5] $end
$var wire 1 Z Reg1 [4] $end
$var wire 1 [ Reg1 [3] $end
$var wire 1 \ Reg1 [2] $end
$var wire 1 ] Reg1 [1] $end
$var wire 1 ^ Reg1 [0] $end
$var wire 1 _ Reg2 [7] $end
$var wire 1 ` Reg2 [6] $end
$var wire 1 a Reg2 [5] $end
$var wire 1 b Reg2 [4] $end
$var wire 1 c Reg2 [3] $end
$var wire 1 d Reg2 [2] $end
$var wire 1 e Reg2 [1] $end
$var wire 1 f Reg2 [0] $end
$var wire 1 g student_id [0] $end
$var wire 1 h student_id [1] $end
$var wire 1 i student_id [2] $end
$var wire 1 j student_id [3] $end
$var wire 1 k student_id [4] $end
$var wire 1 l student_id [5] $end
$var wire 1 m student_id [6] $end
$var wire 1 n sampler $end
$scope module i1 $end
$var wire 1 o gnd $end
$var wire 1 p vcc $end
$var wire 1 q unknown $end
$var tri1 1 r devclrn $end
$var tri1 1 s devpor $end
$var tri1 1 t devoe $end
$var wire 1 u inst|Add1~2_combout $end
$var wire 1 v inst|Add1~8_combout $end
$var wire 1 w inst|Add1~11 $end
$var wire 1 x inst|Add1~12_combout $end
$var wire 1 y inst|Selector4~0_combout $end
$var wire 1 z inst|Selector4~1_combout $end
$var wire 1 { inst|result~0_combout $end
$var wire 1 | inst|Selector4~4_combout $end
$var wire 1 } inst|Selector4~6_combout $end
$var wire 1 ~ inst|Selector4~7_combout $end
$var wire 1 !! inst|result~1_combout $end
$var wire 1 "! inst|Selector5~0_combout $end
$var wire 1 #! inst|Selector5~1_combout $end
$var wire 1 $! inst|Selector6~0_combout $end
$var wire 1 %! inst|result~3_combout $end
$var wire 1 &! inst|Selector7~3_combout $end
$var wire 1 '! inst|Selector7~4_combout $end
$var wire 1 (! inst|Selector7~5_combout $end
$var wire 1 )! inst|result~4_combout $end
$var wire 1 *! inst|Selector0~2_combout $end
$var wire 1 +! inst|Selector0~3_combout $end
$var wire 1 ,! inst|result~6_combout $end
$var wire 1 -! inst|result~7_combout $end
$var wire 1 .! inst|Selector3~0_combout $end
$var wire 1 /! inst|Selector3~1_combout $end
$var wire 1 0! inst|Selector3~2_combout $end
$var wire 1 1! clk~combout $end
$var wire 1 2! reset~combout $end
$var wire 1 3! data_in~combout $end
$var wire 1 4! inst12|Selector0~0_combout $end
$var wire 1 5! reset~clk_delay_ctrl_clkout $end
$var wire 1 6! reset~clkctrl_outclk $end
$var wire 1 7! inst12|yfsm.s0~regout $end
$var wire 1 8! inst12|Selector6~0_combout $end
$var wire 1 9! inst12|yfsm.s6~regout $end
$var wire 1 :! inst12|Selector4~0_combout $end
$var wire 1 ;! inst12|yfsm.s4~regout $end
$var wire 1 <! inst12|Selector2~0_combout $end
$var wire 1 =! inst12|yfsm.s2~regout $end
$var wire 1 >! inst12|Selector7~0_combout $end
$var wire 1 ?! inst12|yfsm.s7~regout $end
$var wire 1 @! inst12|Selector5~0_combout $end
$var wire 1 A! inst12|yfsm.s5~regout $end
$var wire 1 B! inst12|Selector3~0_combout $end
$var wire 1 C! inst12|yfsm.s3~regout $end
$var wire 1 D! inst12|Selector1~0_combout $end
$var wire 1 E! inst12|yfsm.s1~regout $end
$var wire 1 F! inst12|WideOr0~0_combout $end
$var wire 1 G! inst12|WideOr1~0_combout $end
$var wire 1 H! inst12|WideOr2~combout $end
$var wire 1 I! inst1|Mux8~0_combout $end
$var wire 1 J! inst|LessThan0~0_combout $end
$var wire 1 K! inst|LessThan0~1_combout $end
$var wire 1 L! inst|neg~0_combout $end
$var wire 1 M! inst1|Mux8~1_combout $end
$var wire 1 N! inst1|Mux8~2_combout $end
$var wire 1 O! inst1|Mux8~3_combout $end
$var wire 1 P! inst1|Mux8~4_combout $end
$var wire 1 Q! inst1|Mux8~5_combout $end
$var wire 1 R! inst1|Mux8~6_combout $end
$var wire 1 S! inst1|Mux8~7_combout $end
$var wire 1 T! inst|LessThan1~1_cout $end
$var wire 1 U! inst|LessThan1~3_cout $end
$var wire 1 V! inst|LessThan1~5_cout $end
$var wire 1 W! inst|LessThan1~7_cout $end
$var wire 1 X! inst|LessThan1~9_cout $end
$var wire 1 Y! inst|LessThan1~11_cout $end
$var wire 1 Z! inst|LessThan1~13_cout $end
$var wire 1 [! inst|LessThan1~14_combout $end
$var wire 1 \! inst|Selector4~2_combout $end
$var wire 1 ]! inst|Selector4~8_combout $end
$var wire 1 ^! inst|Selector4~9_combout $end
$var wire 1 _! inst|Add1~1_cout $end
$var wire 1 `! inst|Add1~3 $end
$var wire 1 a! inst|Add1~4_combout $end
$var wire 1 b! inst|Selector4~10_combout $end
$var wire 1 c! inst|Selector4~11_combout $end
$var wire 1 d! inst|Add0~1 $end
$var wire 1 e! inst|Add0~3 $end
$var wire 1 f! inst|Add0~5 $end
$var wire 1 g! inst|Add0~6_combout $end
$var wire 1 h! inst|Selector4~12_combout $end
$var wire 1 i! inst|Selector5~2_combout $end
$var wire 1 j! inst|Selector5~3_combout $end
$var wire 1 k! inst|Add0~4_combout $end
$var wire 1 l! inst|Selector5~4_combout $end
$var wire 1 m! inst|Selector7~0_combout $end
$var wire 1 n! inst|Selector7~1_combout $end
$var wire 1 o! inst|Selector7~2_combout $end
$var wire 1 p! inst|Selector6~1_combout $end
$var wire 1 q! inst|result~2_combout $end
$var wire 1 r! inst|Selector6~2_combout $end
$var wire 1 s! inst|Selector6~3_combout $end
$var wire 1 t! inst|Add0~2_combout $end
$var wire 1 u! inst|Selector6~4_combout $end
$var wire 1 v! inst|Selector7~6_combout $end
$var wire 1 w! inst|Add0~0_combout $end
$var wire 1 x! inst|Selector7~7_combout $end
$var wire 1 y! inst6|Mux0~0_combout $end
$var wire 1 z! inst6|Mux1~0_combout $end
$var wire 1 {! inst6|Mux2~0_combout $end
$var wire 1 |! inst6|Mux3~0_combout $end
$var wire 1 }! inst6|Mux4~0_combout $end
$var wire 1 ~! inst6|Mux5~0_combout $end
$var wire 1 !" inst6|Mux6~0_combout $end
$var wire 1 "" inst|Selector0~1_combout $end
$var wire 1 #" inst|Selector0~0_combout $end
$var wire 1 $" inst|Selector0~4_combout $end
$var wire 1 %" inst|Selector0~5_combout $end
$var wire 1 &" inst|Add0~7 $end
$var wire 1 '" inst|Add0~9 $end
$var wire 1 (" inst|Add0~11 $end
$var wire 1 )" inst|Add0~13 $end
$var wire 1 *" inst|Add0~14_combout $end
$var wire 1 +" inst|Selector0~6_combout $end
$var wire 1 ," inst|result~5_combout $end
$var wire 1 -" inst|Selector4~3_combout $end
$var wire 1 ." inst|Selector4~5_combout $end
$var wire 1 /" inst|Selector1~0_combout $end
$var wire 1 0" inst|Selector1~1_combout $end
$var wire 1 1" inst|Selector1~2_combout $end
$var wire 1 2" inst|Add1~5 $end
$var wire 1 3" inst|Add1~7 $end
$var wire 1 4" inst|Add1~9 $end
$var wire 1 5" inst|Add1~10_combout $end
$var wire 1 6" inst|Selector1~3_combout $end
$var wire 1 7" inst|Add0~12_combout $end
$var wire 1 8" inst|Selector1~4_combout $end
$var wire 1 9" inst|Selector2~0_combout $end
$var wire 1 :" inst|Selector2~1_combout $end
$var wire 1 ;" inst|Selector2~2_combout $end
$var wire 1 <" inst|Selector2~3_combout $end
$var wire 1 =" inst|Add0~10_combout $end
$var wire 1 >" inst|Selector2~4_combout $end
$var wire 1 ?" inst|Add1~6_combout $end
$var wire 1 @" inst|Selector3~3_combout $end
$var wire 1 A" inst|Add0~8_combout $end
$var wire 1 B" inst|Selector3~4_combout $end
$var wire 1 C" inst5|Mux0~0_combout $end
$var wire 1 D" inst5|Mux1~0_combout $end
$var wire 1 E" inst5|Mux2~0_combout $end
$var wire 1 F" inst5|Mux3~0_combout $end
$var wire 1 G" inst5|Mux4~0_combout $end
$var wire 1 H" inst5|Mux5~0_combout $end
$var wire 1 I" inst5|Mux6~0_combout $end
$var wire 1 J" inst12|WideOr3~combout $end
$var wire 1 K" inst3|Mux0~2_combout $end
$var wire 1 L" inst12|WideOr4~combout $end
$var wire 1 M" inst12|WideOr5~combout $end
$var wire 1 N" inst3|Mux1~0_combout $end
$var wire 1 O" inst3|Mux2~0_combout $end
$var wire 1 P" inst3|Mux3~0_combout $end
$var wire 1 Q" inst3|Mux5~0_combout $end
$var wire 1 R" inst3|Mux6~0_combout $end
$var wire 1 S" inst4|Q [7] $end
$var wire 1 T" inst4|Q [6] $end
$var wire 1 U" inst4|Q [5] $end
$var wire 1 V" inst4|Q [4] $end
$var wire 1 W" inst4|Q [3] $end
$var wire 1 X" inst4|Q [2] $end
$var wire 1 Y" inst4|Q [1] $end
$var wire 1 Z" inst4|Q [0] $end
$var wire 1 [" A~combout [7] $end
$var wire 1 \" A~combout [6] $end
$var wire 1 ]" A~combout [5] $end
$var wire 1 ^" A~combout [4] $end
$var wire 1 _" A~combout [3] $end
$var wire 1 `" A~combout [2] $end
$var wire 1 a" A~combout [1] $end
$var wire 1 b" A~combout [0] $end
$var wire 1 c" inst2|Q [7] $end
$var wire 1 d" inst2|Q [6] $end
$var wire 1 e" inst2|Q [5] $end
$var wire 1 f" inst2|Q [4] $end
$var wire 1 g" inst2|Q [3] $end
$var wire 1 h" inst2|Q [2] $end
$var wire 1 i" inst2|Q [1] $end
$var wire 1 j" inst2|Q [0] $end
$var wire 1 k" B~combout [7] $end
$var wire 1 l" B~combout [6] $end
$var wire 1 m" B~combout [5] $end
$var wire 1 n" B~combout [4] $end
$var wire 1 o" B~combout [3] $end
$var wire 1 p" B~combout [2] $end
$var wire 1 q" B~combout [1] $end
$var wire 1 r" B~combout [0] $end
$upscope $end
$upscope $end
$enddefinitions $end
#0
$dumpvars
b1001 !
b1 "
0#
1$
0%
0)
0(
0'
0&
00
1/
1.
1-
1,
1+
1*
1@
0?
0>
0=
0<
0;
0:
09
08
07
06
05
04
03
02
01
1D
0C
0B
1A
0K
0J
1I
1H
0G
0F
0E
0O
0N
0M
0L
1V
0U
0T
0S
0R
0Q
0P
0^
0]
0\
0[
0Z
0Y
0X
0W
0f
0e
0d
0c
0b
0a
0`
0_
1m
0l
0k
0j
0i
0h
0g
xn
0o
1p
xq
1r
1s
1t
0u
0v
0w
0x
0y
0z
0{
0|
0}
0~
0!!
0"!
0#!
0$!
0%!
0&!
0'!
0(!
0)!
0*!
0+!
0,!
0-!
0.!
0/!
10!
01!
02!
13!
14!
05!
06!
07!
18!
09!
0:!
0;!
0<!
0=!
0>!
0?!
0@!
0A!
0B!
0C!
0D!
0E!
1F!
1G!
1H!
1I!
0J!
0K!
0L!
0M!
0N!
0O!
0P!
0Q!
0R!
0S!
0T!
1U!
0V!
1W!
0X!
1Y!
0Z!
0[!
1\!
0]!
0^!
1_!
0`!
1a!
1b!
0c!
0d!
1e!
0f!
0g!
1h!
0i!
0j!
1k!
0l!
0m!
0n!
0o!
0p!
0q!
0r!
0s!
1t!
0u!
1v!
1w!
1x!
0y!
0z!
0{!
1|!
1}!
0~!
1!"
1""
1#"
1$"
0%"
1&"
0'"
1("
0)"
1*"
0+"
0,"
0-"
0."
0/"
00"
11"
12"
03"
14"
05"
06"
17"
08"
09"
0:"
1;"
0<"
1="
0>"
0?"
0@"
1A"
0B"
0C"
0D"
0E"
0F"
0G"
0H"
0I"
1J"
0K"
1L"
0M"
1N"
0O"
0P"
0Q"
1R"
0Z"
0Y"
0X"
0W"
0V"
0U"
0T"
0S"
1b"
0a"
0`"
1_"
0^"
0]"
0\"
0["
0j"
0i"
0h"
0g"
0f"
0e"
0d"
0c"
1r"
0q"
0p"
0o"
0n"
0m"
0l"
0k"
$end
#50000
1#
11!
0n
1j"
1Z"
1g"
19!
17!
0v!
1d!
0w!
1%!
1g!
0a!
0W!
0""
1]!
1:!
08!
1z
0L"
0J"
0#"
0\!
0G!
0F!
1^
1f
1[
0x!
0e!
0t!
0b!
1X!
1@"
0;"
16"
01"
0$"
00!
0R"
0N"
1<"
1%"
1N!
0I!
1(
1'
0}!
0|!
1f!
0k!
0h!
0Y!
1B"
0<"
18"
06"
0%"
0@"
1>"
1+"
1L!
0D
0m
1:
0@
1h
0&"
0g!
0!"
1Z!
1I"
1F"
1E"
1D"
0>"
08"
0+"
0B"
0I
0H
0A
1O
1M
1N
1L
10
1'"
0A"
1[!
0I"
0F"
0E"
0D"
1S
1R
1Q
0N
0M
0L
0O
1K
0V
0("
0="
0S
0R
0Q
1V
1)"
07"
0*"
#100000
0#
01!
1n
#150000
1#
11!
0n
1;!
09!
1M"
1""
1m!
1\!
1G!
1<!
0:!
1&!
0z
1R"
1Q"
1P"
1N"
1i!
1^!
1P!
0N!
1'!
1k
0(
1b!
1(!
1m
1l
1j
1<
0:
0h
1h!
1v!
1!"
1x!
1A
1}!
1|!
1D
0K
1I
1H
#200000
0#
01!
1n
#250000
1#
11!
0n
1=!
0;!
1J"
1."
1F!
1>!
0<!
1|
1y
0M"
1n!
0]!
0\!
0G!
0'!
0&!
0R"
0P"
1O"
19"
1"!
1R!
0P!
0""
0m!
1]!
1z
1s!
1j!
0i!
0^!
0(!
0k
0'
1(
1:"
1#!
0n!
0j!
1l!
0b!
0m
0j
1i
1>
0<
1;"
1j!
0v!
1u!
0s!
0l!
0!"
0}!
0|!
0h!
1B
1<"
1l!
0x!
1!"
1~!
1}!
0u!
1C
0B
0I
0H
0A
1K
1>"
0~!
1|!
1y!
1B
0D
1J
1I
0C
0K
1I"
1H"
1E"
1N
0J
1H
1E
1U
1R
0V
#300000
0#
01!
1n
#350000
1#
11!
0n
1?!
0=!
1@!
0>!
0J"
0."
0H!
0F!
0|
0y
0Q"
0O"
0N"
09"
0"!
0R!
1M!
1""
1m!
0]!
0z
1)
1'
0:"
0#!
0;"
1n!
0j!
0l
0i
0>
19
1h
0<"
1v!
1s!
0l!
0>"
1x!
0!"
0}!
0|!
0y!
0B
0I"
0H"
0E"
1~!
1}!
1|!
1y!
0N
1D
0I
0H
0E
1K
0U
0R
1J
1I
1H
1E
1V
#400000
0#
01!
1n
#450000
1#
11!
0n
1A!
0?!
1J"
1-"
1G!
1B!
0@!
1&!
1$!
1y
1Q"
1O"
1N"
1:"
1~
1O!
0M!
1p!
0""
0m!
1]!
1z
0(
1;"
1^!
1r!
0n!
1l
1i
1;
09
0h
1<"
1b!
0v!
1u!
1>"
1h!
0x!
1!"
0|!
0y!
1C
1I"
1H"
1E"
0~!
0}!
1|!
1N
1A
0D
0H
0E
0K
1U
1R
0J
0I
1H
0V
#500000
0#
01!
1n
#550000
1#
11!
0n
1C!
0A!
1M"
1L"
1K"
1."
1o!
1F!
1D!
0B!
0J"
0G!
0&!
0$!
0Q"
0O"
0N"
19"
1/"
1.!
1*!
1"!
1}
0r!
0p!
1Q!
0O!
0K"
1k
1g
0'
1(
10"
1/!
1+!
1#!
0s!
1r!
0l
0i
1=
0;
0g
1h
11"
10!
1$"
1j!
0u!
1s!
16"
1@"
1%"
1l!
0|!
1u!
0C
18"
1B"
1+"
1{!
1z!
1B
0H
1C
0H"
1F"
1D"
1M
1O
1L
1G
1F
0U
1S
1Q
#600000
0#
01!
1n
#650000
1#
11!
0n
1E!
0C!
1J"
0."
0-"
1G!
0D!
04!
1&!
1$!
1|
1R"
1Q"
1P"
1N"
1K"
09"
0/"
0*!
0"!
0}
1S!
0Q!
1'!
1p!
0(
0:"
00"
0+!
0#!
0~
0r!
1m
1l
1j
1g
1?
0=
0h
0;"
01"
0$"
0j!
0^!
0s!
0<"
06"
0%"
0l!
0b!
0u!
0>"
08"
0+"
0{!
0z!
0h!
0B
0C
0I"
1H"
1G"
0E"
0D"
1C"
0!"
0N
0M
0L
0G
0F
0A
1U
1T
0R
0Q
1P
1V
1K
#700000
0#
01!
1n
#750000
1#
11!
0n
0E!
07!
0M"
0K"
0o!
14!
0&!
0$!
0|
0y
1H!
18!
0Q"
0P"
1r!
0p!
1(!
0'!
0.!
1""
0]!
0z
0S!
1I!
0k
0g
0)
0r!
0(!
0/!
0@"
00!
1#"
1\!
0L!
0l
0j
0?
1@
10!
0B"
1;"
11"
1$"
00
0H"
0G"
0F"
0C"
0O
0U
0T
0S
0P
#800000
0#
01!
1n
#850000
1#
11!
0n
19!
17!
0""
1]!
1:!
08!
1z
0L"
0J"
0#"
0\!
0G!
0F!
1@"
0;"
16"
01"
0$"
00!
0R"
0N"
1<"
1%"
1N!
0I!
1(
1'
1B"
0<"
18"
06"
0%"
0@"
1>"
1+"
1L!
0m
1:
0@
1h
1I"
1F"
1E"
1D"
0>"
08"
0+"
0B"
1O
1M
1N
1L
10
0I"
0F"
0E"
0D"
1S
1R
1Q
0N
0M
0L
0O
0V
0S
0R
0Q
1V
#900000
0#
01!
1n
#950000
1#
11!
0n
1;!
09!
1M"
1""
1m!
1\!
1G!
1<!
0:!
1&!
0z
1R"
1Q"
1P"
1N"
1i!
1^!
1P!
0N!
1'!
1k
0(
1b!
1(!
1m
1l
1j
1<
0:
0h
1h!
1v!
1!"
1x!
1A
1}!
1|!
1D
0K
1I
1H
